GUIA09/Exemplo0905.vcd
$date
	Sun Oct 17 16:31:42 2021
$end
$version
	Icarus Verilog
$end
$timescale
	1s
$end
$scope module Exemplo_0904 $end
$var wire 1 ! clock $end
$upscope $end
$scope module Exemplo_0904 $end
$var wire 1 " p1 $end
$upscope $end
$scope module Exemplo_0904 $end
$var reg 1 # p $end
$upscope $end
$enddefinitions $end
#0
$dumpvars
0#
1"
0!
$end
#3
0"
#4
1!
#6
1"
#8
0!
#9
0"
#12
1"
1!
#15
0"
#16
0!
#18
1"
#20
1!
#21
0"
#24
1"
0!
#27
0"
#28
1!
#30
1"
#32
0!
#33
0"
#36
1"
1!
#39
0"
#40
0!
#42
1"
#44
1!
#45
0"
#48
1"
0!
#51
0"
#52
1!
#54
1"
#56
0!
#57
0"
#60
1"
1!
1#
#63
0"
#64
0!
#66
1"
#68
1!
#69
0"
#72
1"
0!
#75
0"
#76
1!
#78
1"
#80
0!
#81
0"
#84
1"
1!
#87
0"
#88
0!
#90
1"
#92
1!
#93
0"
#96
1"
0!
#99
0"
#100
1!
#102
1"
#104
0!
#105
0"
#108
1"
1!
#111
0"
#112
0!
#114
1"
#116
1!
#117
0"
#120
1"
0!
#123
0"
#124
1!
#126
1"
#128
0!
#129
0"
#132
1"
1!
#135
0"
#136
0!
#138
1"
#140
1!
#141
0"
#144
1"
0!
#147
0"
#148
1!
#150
1"
#152
0!
#153
0"
#156
1"
1!
#159
0"
#160
0!
#162
1"
#164
1!
#165
0"
#168
1"
0!
#171
0"
#172
1!
#174
1"
#176
0!
#177
0"
#180
1"
1!
0#
#183
0"
#184
0!
#186
1"
#188
1!
#189
0"
#192
1"
0!
#195
0"
#196
1!
#198
1"
#200
0!
#201
0"
#204
1"
1!
#207
0"
#208
0!
#210
1"
#212
1!
#213
0"
#216
1"
0!
#219
0"
#220
1!
#222
1"
#224
0!
#225
0"
#228
1"
1!
#231
0"
#232
0!
#234
1"
#236
1!
#237
0"
#240
1"
0!
#243
0"
#244
1!
#246
1"
#248
0!
#249
0"
#252
1"
1!
#255
0"
#256
0!
#258
1"
#260
1!
#261
0"
#264
1"
0!
#267
0"
#268
1!
#270
1"
#272
0!
#273
0"
#276
1"
1!
#279
0"
#280
0!
#282
1"
#284
1!
#285
0"
#288
1"
0!
#291
0"
#292
1!
#294
1"
#296
0!
#297
0"
#300
1"
1!
#303
0"
#304
0!
#306
1"
#308
1!
#309
0"
#312
1"
0!
#315
0"
#316
1!
#318
1"
#320
0!
#321
0"
#324
1"
1!
#327
0"
#328
0!
#330
1"
#332
1!
#333
0"
#336
1"
0!
#339
0"
#340
1!
#342
1"
#344
0!
#345
0"
#348
1"
1!
#351
0"
#352
0!
#354
1"
#356
1!
#357
0"
#360
1"
0!
1#
#363
0"
#364
1!
#366
1"
#368
0!
#369
0"
#372
1"
1!
#375
0"
#376
0!
#378
1"
#380
1!
#381
0"
#384
1"
0!
#387
0"
#388
1!
#390
1"
#392
0!
#393
0"
#396
1"
1!
#399
0"
#400
0!
#402
1"
#404
1!
#405
0"
#408
1"
0!
#411
0"
#412
1!
#414
1"
#416
0!
#417
0"
#420
1"
1!
#423
0"
#424
0!
#426
1"
#428
1!
#429
0"
#432
1"
0!
#435
0"
#436
1!
#438
1"
#440
0!
#441
0"
#444
1"
1!
#447
0"
#448
0!
#450
1"
#452
1!
#453
0"
#456
1"
0!
#459
0"
#460
1!
#462
1"
#464
0!
#465
0"
#468
1"
1!
#471
0"
#472
0!
#474
1"
#476
1!
#477
0"
#480
1"
0!
#483
0"
#484
1!
#486
1"
#488
0!
#489
0"
#492
1"
1!
#495
0"
#496
0!
#498
1"
#500
1!
#501
0"
#504
1"
0!
#507
0"
#508
1!
#510
1"
#512
0!
#513
0"
#516
1"
1!
#519
0"
#520
0!
#522
1"
#524
1!
#525
0"
#528
1"
0!
#531
0"
#532
1!
#534
1"
#536
0!
#537
0"
#540
1"
1!
#543
0"
#544
0!
#546
1"
#548
1!
#549
0"
#552
1"
0!
#555
0"
#556
1!
#558
1"
#560
0!
#561
0"
#564
1"
1!
#567
0"
#568
0!
#570
1"
#572
1!
#573
0"
#576
1"
0!
#579
0"
#580
1!
#582
1"
#584
0!
#585
0"
#588
1"
1!
#591
0"
#592
0!
#594
1"
#596
1!
#597
0"
#600
1"
0!
0#
#603
0"
#604
1!
#606
1"
#608
0!
#609
0"
#612
1"
1!
#615
0"
#616
0!
#618
1"
#620
1!
#621
0"
#624
1"
0!
#627
0"
#628
1!
#630
1"
#632
0!
#633
0"
#636
1"
1!
#639
0"
#640
0!
#642
1"
#644
1!
#645
0"
#648
1"
0!
#651
0"
#652
1!
#654
1"
#656
0!
#657
0"
#660
1"
1!
#663
0"
#664
0!
#666
1"
#668
1!
#669
0"
#672
1"
0!
#675
0"
#676
1!
#678
1"
#680
0!
#681
0"
#684
1"
1!
#687
0"
#688
0!
#690
1"
#692
1!
#693
0"
#696
1"
0!
#699
0"
#700
1!
#702
1"
#704
0!
#705
0"
#708
1"
1!
#711
0"
#712
0!
#714
1"
#716
1!
#717
0"
#720
1"
0!
#723
0"
#724
1!
#726
1"
#728
0!
#729
0"
#732
1"
1!
#735
0"
#736
0!
#738
1"
#740
1!
#741
0"
#744
1"
0!
#747
0"
#748
1!
#750
1"
#752
0!
#753
0"
#756
1"
1!
#759
0"
#760
0!
#762
1"
#764
1!
#765
0"
#768
1"
0!
#771
0"
#772
1!
#774
1"
#776
0!
#777
0"
#780
1"
1!
#783
0"
#784
0!
#786
1"
#788
1!
#789
0"
#792
1"
0!
#795
0"
#796
1!
#798
1"
#800
0!
#801
0"
#804
1"
1!
#807
0"
#808
0!
#810
1"
#812
1!
#813
0"
#816
1"
0!
#819
0"
#820
1!
#822
1"
#824
0!
#825
0"
#828
1"
1!
#831
0"
#832
0!
#834
1"
#836
1!
#837
0"
#840
1"
0!
#843
0"
#844
1!
#846
1"
#848
0!
#849
0"
#852
1"
1!
#855
0"
#856
0!
#858
1"
#860
1!
#861
0"
#864
1"
0!
#867
0"
#868
1!
#870
1"
#872
0!
#873
0"
#876
1"
1!
#879
0"
#880
0!
#882
1"
#884
1!
#885
0"
#888
1"
0!
#891
0"
#892
1!
#894
1"
#896
0!
#897
0"
#900
1"
1!
1#
#903
0"
#904
0!
#906
1"
#908
1!
#909
0"
#912
1"
0!
#915
0"
#916
1!
#918
1"
#920
0!
#921
0"
#924
1"
1!
#927
0"
#928
0!
#930
1"
#932
1!
#933
0"
#936
1"
0!
#939
0"
#940
1!
#942
1"
#944
0!
#945
0"
#948
1"
1!
#951
0"
#952
0!
#954
1"
#956
1!
#957
0"
#960
1"
0!
#963
0"
#964
1!
#966
1"
#968
0!
#969
0"
#972
1"
1!
#975
0"
#976
0!
#978
1"
#980
1!
#981
0"
#984
1"
0!
#987
0"
#988
1!
#990
1"
#992
0!
#993
0"
#996
1"
1!
#999
0"
#1000
0!
#1002
1"
#1004
1!
#1005
0"
#1008
1"
0!
#1011
0"
#1012
1!
#1014
1"
#1016
0!
#1017
0"
#1020
1"
1!
#1023
0"
#1024
0!
#1026
1"
#1028
1!
#1029
0"
#1032
1"
0!
#1035
0"
#1036
1!
#1038
1"
#1040
0!
#1041
0"
#1044
1"
1!
#1047
0"
#1048
0!
#1050
1"
#1052
1!
#1053
0"
#1056
1"
0!
#1059
0"
#1060
1!
#1062
1"
#1064
0!
#1065
0"
#1068
1"
1!
#1071
0"
#1072
0!
#1074
1"
#1076
1!
#1077
0"
#1080
1"
0!
#1083
0"
#1084
1!
#1086
1"
#1088
0!
#1089
0"
#1092
1"
1!
#1095
0"
#1096
0!
#1098
1"
#1100
1!
#1101
0"
#1104
1"
0!
#1107
0"
#1108
1!
#1110
1"
#1112
0!
#1113
0"
#1116
1"
1!
#1119
0"
#1120
0!
#1122
1"
#1124
1!
#1125
0"
#1128
1"
0!
#1131
0"
#1132
1!
#1134
1"
#1136
0!
#1137
0"
#1140
1"
1!
#1143
0"
#1144
0!
#1146
1"
#1148
1!
#1149
0"
#1152
1"
0!
#1155
0"
#1156
1!
#1158
1"
#1160
0!
#1161
0"
#1164
1"
1!
#1167
0"
#1168
0!
#1170
1"
#1172
1!
#1173
0"
#1176
1"
0!
#1179
0"
#1180
1!
#1182
1"
#1184
0!
#1185
0"
#1188
1"
1!
#1191
0"
#1192
0!
#1194
1"
#1196
1!
#1197
0"
#1200
1"
0!
#1203
0"
#1204
1!
#1206
1"
#1208
0!
#1209
0"
#1212
1"
1!
#1215
0"
#1216
0!
#1218
1"
#1220
1!
#1221
0"
#1224
1"
0!
#1227
0"
#1228
1!
#1230
1"
#1232
0!
#1233
0"
#1236
1"
1!
#1239
0"
#1240
0!
#1242
1"
#1244
1!
#1245
0"
#1248
1"
0!
#1251
0"
#1252
1!
#1254
1"
#1256
0!
#1257
0"
#1260
1"
1!
0#
#1263
0"
#1264
0!
#1266
1"
#1268
1!
#1269
0"
#1272
1"
0!
#1275
0"
#1276
1!
#1278
1"
#1280
0!
#1281
0"
#1284
1"
1!
#1287
0"
#1288
0!
#1290
1"
#1292
1!
#1293
0"
#1296
1"
0!
#1299
0"
#1300
1!
#1302
1"
#1304
0!
#1305
0"
#1308
1"
1!
#1311
0"
#1312
0!
#1314
1"
#1316
1!
#1317
0"
#1320
1"
0!
#1323
0"
#1324
1!
#1326
1"
#1328
0!
#1329
0"
#1332
1"
1!
#1335
0"
#1336
0!
#1338
1"
#1340
1!
#1341
0"
#1344
1"
0!
#1347
0"
#1348
1!
#1350
1"
#1352
0!
#1353
0"
#1356
1"
1!
#1359
0"
#1360
0!
#1362
1"
#1364
1!
#1365
0"
#1368
1"
0!
#1371
0"
#1372
1!
#1374
1"
#1376
0!
#1377
0"
#1380
1"
1!
#1383
0"
#1384
0!
#1386
1"
#1388
1!
#1389
0"
#1392
1"
0!
#1395
0"
#1396
1!
#1398
1"
#1400
0!
#1401
0"
#1404
1"
1!
#1407
0"
#1408
0!
#1410
1"
#1412
1!
#1413
0"
#1416
1"
0!
#1419
0"
#1420
1!
#1422
1"
#1424
0!
#1425
0"
#1428
1"
1!
#1431
0"
#1432
0!
#1434
1"
#1436
1!
#1437
0"
#1440
1"
0!
#1443
0"
#1444
1!
#1446
1"
#1448
0!
#1449
0"
#1452
1"
1!
#1455
0"
#1456
0!
#1458
1"
#1460
1!
#1461
0"
#1464
1"
0!
#1467
0"
#1468
1!
#1470
1"
#1472
0!
#1473
0"
#1476
1"
1!
#1479
0"
#1480
0!
#1482
1"
#1484
1!
#1485
0"
#1488
1"
0!
#1491
0"
#1492
1!
#1494
1"
#1496
0!
#1497
0"
#1500
1"
1!
#1503
0"
#1504
0!
#1506
1"
#1508
1!
#1509
0"
#1512
1"
0!
#1515
0"
#1516
1!
#1518
1"
#1520
0!
#1521
0"
#1524
1"
1!
#1527
0"
#1528
0!
#1530
1"
#1532
1!
#1533
0"
#1536
1"
0!
#1539
0"
#1540
1!
#1542
1"
#1544
0!
#1545
0"
#1548
1"
1!
#1551
0"
#1552
0!
#1554
1"
#1556
1!
#1557
0"
#1560
1"
0!
#1563
0"
#1564
1!
#1566
1"
#1568
0!
#1569
0"
#1572
1"
1!
#1575
0"
#1576
0!
#1578
1"
#1580
1!
#1581
0"
#1584
1"
0!
#1587
0"
#1588
1!
#1590
1"
#1592
0!
#1593
0"
#1596
1"
1!
#1599
0"
#1600
0!
#1602
1"
#1604
1!
#1605
0"
#1608
1"
0!
#1611
0"
#1612
1!
#1614
1"
#1616
0!
#1617
0"
#1620
1"
1!
#1623
0"
#1624
0!
#1626
1"
#1628
1!
#1629
0"
#1632
1"
0!
#1635
0"
